    #include <algorithm>
    #include <string>
    #include <iostream>
    #include <iterator>
    using namespace std;

    bool pred(std::string const &str)
    {
        return "aceg"s.find(str.front()) == string::npos;
    }

    int main()
    {
        string sarr[] =
            {
                "alpha", "bravo", "charley", "delta", "echo",
                "foxtrot", "golf", "hotel"
            };
                            // copy elements not beginning with a,c,e or g
        copy_if(sarr, sarr + size(sarr), sarr, pred);

        copy(sarr, sarr + size(sarr), ostream_iterator<string>(cout, " "));
        cout << '\n';
    }

    //  Displays: bravo delta foxtrot hotel echo foxtrot golf hotel 



